{
  "numero": "eze-rree2",
  "nom": "Sanne",
  "prenom": "Aboubacar",
  "dateNaissance": "07/06/2000",
  "datas" : [
    {
      "idAchat": 101,
      "client": "eze-rree2",
      "heureAchat": "12:30",
      "articles" : [
        {
          "id":101,
          "referenceArticle":"eze-rree2-eezez",
          "idAchat": 101
        },
        {
          "id":102,
          "referenceArticle":"eze-rree2-eezez",
          "idAchat": 101
        }
      ]
    }
  ]
}
